Harald Kliems: Scraping 4S
…
panel_desc <- panels %>% html_nodes(".post-content-inner") %>% html_text()

panels_all <- tibble(title = panel_titles, desc = panel_desc)

A quick bit of data cleaning to remove the numbers from the titles and use them as an ID column instead:

Show code

panels_all <- panels_all %>% 
  mutate(id = str_extract(title, "^\\d*"),
         title = str_remove(title, "^\\d+.\\s"))
  
panels_all

# A tibble: 210 x 3
   title                          desc                           id   
   <chr>                          <chr>                          <chr>
 1 (Bio)Engineering Nature: Edit~ Since the discovery in 2015 o~ 1    
 2 (Dis)Trust in Public-Sector D~ STS scholarship on technopoli~ 2    
 3 (Im)material streams in the c~ The deepening datafication of~ 3    
 4 (Re)configuring care practice~ Care practices were addressed~ 4    
 5 (Re)materialising Cancer: Bod~ Bioscientific approaches to i~ 5    
 6 A Good Life, In Theory: Think~ In recent years, an increasin~ 6    
 7 Academic Automation, Machine ~ Over the last 70 years, compu~ 7    
 8 Aerotechnologies: Air as Elem~ Objects, processes, or event~ 8    
 9 Aging with other-than-humans:~ In recent years, Science and ~ 9    
10 AI and Feminist STS            Much excellent work has docum~ 10   
# ... with 200 more rows

Looks pretty good, doesnt it? Lets do a simple analysis: What are the most frequent words in the panel titles (after removing common stop words)?

Show code

panels_all %>% 
  unnest_tokens(word, title, token = "words") %>% 
  anti_join(get_stopwords()) %>% 
  count(word, sort = T)

# A tibble: 723 x 2
   word             n
   <chr>        <int>
 1 sts             29
 2 relations       24
 3 science         23
 4 technologies    15
 5 technology      15
 6 global          14
 7 good            13
 8 governance      13
 9 knowledge       12
10 research        12
# ... with 713 more rows
…
Show code

pages_full <- read_rds("data/pages_full_2021-03-07.rds")

panels_full_wide <- pages_full %>% 
  separate(organizer, c("organizer_1", "organizer_2", "organizer_3", "organizer_4", "organizer_5", "organizer_6", "organizer_7"), "; ") %>% 
  mutate(id = str_extract(title, "^\\d*"),
         title = str_remove(title, "^\\d*.\\s"),
         keywords = str_extract(desc, "(?<=(Keywords\\:\\s))(.*)"),
         desc = str_extract(desc, "(.|\\n)*(?=\\n\\nContact)")) %>% #return everything before contact
  separate(keywords, c("keyword_1", "keyword_2", "keyword_3", "keyword_4", "keyword_5", "keyword_6", "keyword_7", "keyword_8"), ",|;")

panels_full_wide

# A tibble: 210 x 19
   title  organizer_1  organizer_2 organizer_3 organizer_4 organizer_5
   <chr>  <chr>        <chr>       <chr>       <chr>       <chr>      
 1 (Bio)~ "Elliott Re~ <NA>        <NA>        <NA>        <NA>       
 2 (Dis)~ "danah boyd~ Janet Vert~ Alondra Ne~ <NA>        <NA>       
 3 (Im)m~ "Morgan Mou~ Ryan Burns~ <NA>        <NA>        <NA>       
 4 (Re)c~ "Stefan Nic~ Cristina P~ <NA>        <NA>        <NA>       
 5 (Re)m~ "Emily Ross~ Julia Swal~ <NA>        <NA>        <NA>       
 6 A Goo~ "Claire Oli~ <NA>        <NA>        <NA>        <NA>       
 7 Acade~ "Jeremy Hun~ <NA>        <NA>        <NA>        <NA>       
 8 Aerot~ "Boyd Ruamc~ Jia Hui Le~ <NA>        <NA>        <NA>       
 9 Aging~ "Daniel Lop~ Nete Schwe~ <NA>        <NA>        <NA>       
10 AI an~ "Rachel Ber~ <NA>        <NA>        <NA>        <NA>       
# ... with 200 more rows, and 13 more variables: organizer_6 <chr>,
#   organizer_7 <chr>, posted <chr>, desc <chr>, id <chr>,
#   keyword_1 <chr>, keyword_2 <chr>, keyword_3 <chr>,
#   keyword_4 <chr>, keyword_5 <chr>, keyword_6 <chr>,
#   keyword_7 <chr>, keyword_8 <chr>
…
Text Mining SSSS panels

Lets do some basic text mining on the cleaned panel data. What are the words most commonly used in the panel descriptions, with stop words like the, you, a,  removed?

Unigrams, bigrams, trigrams

Show code

panels_full_wide %>% 
  unnest_tokens(word, desc, token = "words") %>% 
  anti_join(get_stopwords()) %>% 
  count(word, sort = TRUE)

# A tibble: 7,420 x 2
   word          n
   <chr>     <int>
 1 sts         280
 2 panel       267
 3 social      244
 4 science     233
 5 practices   228
 6 data        188
 7 research    186
 8 relations   185
 9 can         176
10 new         165
# ... with 7,410 more rows

Not terribly exciting, is it? Lets do the same but for bigrams.

Show code

panels_full_wide %>% 
  unnest_tokens(word, desc, token = "ngrams", n = 2) %>% 
  count(word, sort = TRUE)

# A tibble: 35,269 x 2
   word            n
   <chr>       <int>
 1 of the        218
 2 in the        213
 3 this panel    168
 4 and the       145
 5 to the        117
 6 on the         99
 7 as a           87
 8 such as        79
 9 papers that    67
10 with the       62
# ... with 35,259 more rows
…
bigrams_filtered %>% count(word1, word2, sort = TRUE) %>% 
  head(500) %>% 
  paged_table()

Much better? If two is better than one, is three better than two? Lets try trigrams, without stop word filtering.

Show code

panels_full_wide %>% 
  unnest_tokens(word, desc, token = "ngrams", n = 3) %>% 
  count(word, sort = TRUE)

# A tibble: 49,575 x 2
   word                       n
   <chr>                  <int>
 1 as well as                40
 2 what are the              31
 3 in this panel             30
 4 science and technology    30
 5 this panel we             29
 6 this open panel           27
 7 in order to               23
 8 we invite papers          23
 9 not limited to            22
10 the covid 19              22
# ... with 49,565 more rows
…
